%YAML 1.1
%TAG !u! tag:unity3d.com,2011:
--- !u!1045 &1
EditorBuildSettings:
  m_ObjectHideFlags: 0
  serializedVersion: 2
  m_Scenes:
  - enabled: 1
    path: Assets/Scenes/MenuScene.unity
    guid: 410c477a19a80447dbbebaa1c0caccf7
  - enabled: 1
    path: Assets/Scenes/Gameplay.unity
    guid: 9834a22eb19dc4b759c207bab01cae28
  - enabled: 1
    path: Assets/Scenes/DriedScreen.unity
    guid: c9409078cacb182efa22e10226318d60
  - enabled: 1
    path: Assets/Scenes/WinScreen.unity
    guid: 4638ab5af8b334b629c6dae127669585
  m_configObjects: {}
